%!Adobe-FontList 1.14
%Locale:0x3409

%BeginFont
Handler:DirectoryHandler
FontType:Invalid
OutlineFileName:C:\xampp\htdocs\politis\wp-content\themes\politis\Font\calibri-webfont.eot
FileModTime:1385519435
%EndFont

%BeginFont
Handler:DirectoryHandler
FontType:Invalid
OutlineFileName:C:\xampp\htdocs\politis\wp-content\themes\politis\Font\calibri-webfont.svg
FileModTime:1385519435
%EndFont

%BeginFont
Handler:DirectoryHandler
FontType:TrueType
FontName:Calibri
FamilyName:Calibri
StyleName:Regular
FullName:Calibri Regular
MenuName:Calibri
StyleBits:0
WritingScript:Roman
OutlineFileName:C:\xampp\htdocs\politis\wp-content\themes\politis\Font\calibri-webfont.ttf
DataFormat:sfntData
FileLength:79620
FileModTime:1385519435
WeightClass:400
WidthClass:5
AngleClass:0
%EndFont

%BeginFont
Handler:DirectoryHandler
FontType:Invalid
OutlineFileName:C:\xampp\htdocs\politis\wp-content\themes\politis\Font\calibri-webfont.woff
FileModTime:1385519435
%EndFont

%BeginFont
Handler:DirectoryHandler
FontType:TrueType
FontName:TRCenturyGothic
FamilyName:TR Century Gothic
StyleName:Regular
FullName:TR Century Gothic
MenuName:TR Century Gothic
StyleBits:0
WritingScript:Roman
OutlineFileName:C:\xampp\htdocs\politis\wp-content\themes\politis\Font\century-gothic.ttf
DataFormat:sfntData
FileLength:65012
FileModTime:1377223763
WeightClass:400
WidthClass:5
AngleClass:0
%EndFont

%BeginFont
Handler:DirectoryHandler
FontType:Invalid
OutlineFileName:C:\xampp\htdocs\politis\wp-content\themes\politis\Font\COPYING.txt
FileModTime:1377223772
%EndFont

%BeginFont
Handler:DirectoryHandler
FontType:Invalid
OutlineFileName:C:\xampp\htdocs\politis\wp-content\themes\politis\Font\cuprum-regular-webfont.eot
FileModTime:1383250775
%EndFont

%BeginFont
Handler:DirectoryHandler
FontType:Invalid
OutlineFileName:C:\xampp\htdocs\politis\wp-content\themes\politis\Font\cuprum-regular-webfont.svg
FileModTime:1383250775
%EndFont

%BeginFont
Handler:DirectoryHandler
FontType:TrueType
FontName:Cuprum-Regular
FamilyName:Cuprum
StyleName:Regular
FullName:Cuprum Regular
MenuName:Cuprum
StyleBits:0
WritingScript:Roman
OutlineFileName:C:\xampp\htdocs\politis\wp-content\themes\politis\Font\cuprum-regular-webfont.ttf
DataFormat:sfntData
FileLength:46036
FileModTime:1383250775
WeightClass:400
WidthClass:5
AngleClass:0
%EndFont

%BeginFont
Handler:DirectoryHandler
FontType:Invalid
OutlineFileName:C:\xampp\htdocs\politis\wp-content\themes\politis\Font\cuprum-regular-webfont.woff
FileModTime:1383250775
%EndFont

%BeginFont
Handler:DirectoryHandler
FontType:Invalid
OutlineFileName:C:\xampp\htdocs\politis\wp-content\themes\politis\Font\font-face.css
FileModTime:1386186370
%EndFont

%BeginFont
Handler:DirectoryHandler
FontType:Invalid
OutlineFileName:C:\xampp\htdocs\politis\wp-content\themes\politis\Font\fontawesome-webfont.eot
FileModTime:1372257632
%EndFont

%BeginFont
Handler:DirectoryHandler
FontType:Invalid
OutlineFileName:C:\xampp\htdocs\politis\wp-content\themes\politis\Font\fontawesome-webfont.svg
FileModTime:1372257632
%EndFont

%BeginFont
Handler:DirectoryHandler
FontType:TrueType
FontName:FontAwesome
FamilyName:FontAwesome
StyleName:Regular
FullName:FontAwesome Regular
MenuName:FontAwesome
StyleBits:0
WritingScript:Roman
OutlineFileName:C:\xampp\htdocs\politis\wp-content\themes\politis\Font\fontawesome-webfont.ttf
DataFormat:sfntData
FileLength:79076
FileModTime:1372257632
WeightClass:400
WidthClass:5
AngleClass:0
%EndFont

%BeginFont
Handler:DirectoryHandler
FontType:Invalid
OutlineFileName:C:\xampp\htdocs\politis\wp-content\themes\politis\Font\fontawesome-webfont.woff
FileModTime:1372257632
%EndFont

%BeginFont
Handler:DirectoryHandler
FontType:Type1
FontName:FontAwesome
FamilyName:FontAwesome
StyleName:Regular
FullName:FontAwesome
MenuName:FontAwesome
StyleBits:0
WritingScript:Roman
OutlineFileName:C:\xampp\htdocs\politis\wp-content\themes\politis\Font\FontAwesome.otf
DataFormat:sfntData
UsesStandardEncoding:yes
isCFF:yes
FileLength:61896
FileModTime:1372257632
WeightClass:400
WidthClass:5
AngleClass:0
%EndFont

%BeginFont
Handler:DirectoryHandler
FontType:Invalid
OutlineFileName:C:\xampp\htdocs\politis\wp-content\themes\politis\Font\generator_config.txt
FileModTime:1385513780
%EndFont

%BeginFont
Handler:DirectoryHandler
FontType:Invalid
OutlineFileName:C:\xampp\htdocs\politis\wp-content\themes\politis\Font\genericons-regular-webfont.eot
FileModTime:1377223761
%EndFont

%BeginFont
Handler:DirectoryHandler
FontType:Invalid
OutlineFileName:C:\xampp\htdocs\politis\wp-content\themes\politis\Font\genericons-regular-webfont.svg
FileModTime:1377223761
%EndFont

%BeginFont
Handler:DirectoryHandler
FontType:TrueType
FontName:Genericons-Regular
FamilyName:Genericons
StyleName:Regular
FullName:Genericons Regular
MenuName:Genericons
StyleBits:0
WritingScript:Roman
OutlineFileName:C:\xampp\htdocs\politis\wp-content\themes\politis\Font\genericons-regular-webfont.ttf
DataFormat:sfntData
FileLength:19864
FileModTime:1377223760
WeightClass:400
WidthClass:5
AngleClass:0
%EndFont

%BeginFont
Handler:DirectoryHandler
FontType:Invalid
OutlineFileName:C:\xampp\htdocs\politis\wp-content\themes\politis\Font\genericons-regular-webfont.woff
FileModTime:1377223759
%EndFont

%BeginFont
Handler:DirectoryHandler
FontType:Invalid
OutlineFileName:C:\xampp\htdocs\politis\wp-content\themes\politis\Font\genericons.css
FileModTime:1377223759
%EndFont

%BeginFont
Handler:DirectoryHandler
FontType:Invalid
OutlineFileName:C:\xampp\htdocs\politis\wp-content\themes\politis\Font\georgia-webfont.eot
FileModTime:1385513780
%EndFont

%BeginFont
Handler:DirectoryHandler
FontType:Invalid
OutlineFileName:C:\xampp\htdocs\politis\wp-content\themes\politis\Font\georgia-webfont.svg
FileModTime:1385513780
%EndFont

%BeginFont
Handler:DirectoryHandler
FontType:TrueType
FontName:Georgia
FamilyName:Georgia
StyleName:Regular
FullName:Georgia Regular
MenuName:Georgia
StyleBits:0
WritingScript:Roman
OutlineFileName:C:\xampp\htdocs\politis\wp-content\themes\politis\Font\georgia-webfont.ttf
DataFormat:sfntData
FileLength:61688
FileModTime:1385513780
WeightClass:400
WidthClass:5
AngleClass:0
%EndFont

%BeginFont
Handler:DirectoryHandler
FontType:Invalid
OutlineFileName:C:\xampp\htdocs\politis\wp-content\themes\politis\Font\georgia-webfont.woff
FileModTime:1385513780
%EndFont

%BeginFont
Handler:DirectoryHandler
FontType:Invalid
OutlineFileName:C:\xampp\htdocs\politis\wp-content\themes\politis\Font\georgiai-webfont.eot
FileModTime:1385596404
%EndFont

%BeginFont
Handler:DirectoryHandler
FontType:Invalid
OutlineFileName:C:\xampp\htdocs\politis\wp-content\themes\politis\Font\georgiai-webfont.svg
FileModTime:1385596404
%EndFont

%BeginFont
Handler:DirectoryHandler
FontType:TrueType
FontName:Georgia-Italic
FamilyName:Georgia
StyleName:Italic
FullName:Georgia Italic
MenuName:Georgia
StyleBits:1
WritingScript:Roman
OutlineFileName:C:\xampp\htdocs\politis\wp-content\themes\politis\Font\georgiai-webfont.ttf
DataFormat:sfntData
FileLength:72444
FileModTime:1385596404
WeightClass:400
WidthClass:5
AngleClass:1
%EndFont

%BeginFont
Handler:DirectoryHandler
FontType:Invalid
OutlineFileName:C:\xampp\htdocs\politis\wp-content\themes\politis\Font\georgiai-webfont.woff
FileModTime:1385596404
%EndFont

%BeginFont
Handler:DirectoryHandler
FontType:Invalid
OutlineFileName:C:\xampp\htdocs\politis\wp-content\themes\politis\Font\glyphicons-halflings-regular.eot
FileModTime:1383772244
%EndFont

%BeginFont
Handler:DirectoryHandler
FontType:Invalid
OutlineFileName:C:\xampp\htdocs\politis\wp-content\themes\politis\Font\glyphicons-halflings-regular.svg
FileModTime:1383772244
%EndFont

%BeginFont
Handler:DirectoryHandler
FontType:TrueType
FontName:GLYPHICONSHalflings-Regular
FamilyName:GLYPHICONS Halflings
StyleName:Regular
FullName:GLYPHICONS Halflings Regular
MenuName:GLYPHICONS Halflings
StyleBits:0
WritingScript:Roman
OutlineFileName:C:\xampp\htdocs\politis\wp-content\themes\politis\Font\glyphicons-halflings-regular.ttf
DataFormat:sfntData
FileLength:41236
FileModTime:1383772244
WeightClass:400
WidthClass:5
AngleClass:0
%EndFont

%BeginFont
Handler:DirectoryHandler
FontType:Invalid
OutlineFileName:C:\xampp\htdocs\politis\wp-content\themes\politis\Font\glyphicons-halflings-regular.woff
FileModTime:1383772244
%EndFont

%BeginFont
Handler:DirectoryHandler
FontType:TrueType
FontName:CenturyGothic
FamilyName:Century Gothic
StyleName:Regular
FullName:Century Gothic
MenuName:Century Gothic
StyleBits:0
WritingScript:Roman
OutlineFileName:C:\xampp\htdocs\politis\wp-content\themes\politis\Font\GOTHIC.TTF
DataFormat:sfntData
FileLength:137568
FileModTime:1377223772
WeightClass:400
WidthClass:5
AngleClass:0
%EndFont

%BeginFont
Handler:DirectoryHandler
FontType:TrueType
FontName:CenturyGothic-Bold
FamilyName:Century Gothic
StyleName:Bold
FullName:Century Gothic Bold
MenuName:Century Gothic
StyleBits:2
WritingScript:Roman
OutlineFileName:C:\xampp\htdocs\politis\wp-content\themes\politis\Font\GOTHICB.TTF
DataFormat:sfntData
FileLength:129676
FileModTime:1377223771
WeightClass:700
WidthClass:5
AngleClass:0
%EndFont

%BeginFont
Handler:DirectoryHandler
FontType:TrueType
FontName:CenturyGothic-BoldItalic
FamilyName:Century Gothic
StyleName:Bold Italic
FullName:Century Gothic Bold Italic
MenuName:Century Gothic
StyleBits:3
WritingScript:Roman
OutlineFileName:C:\xampp\htdocs\politis\wp-content\themes\politis\Font\GOTHICBI.TTF
DataFormat:sfntData
FileLength:139084
FileModTime:1377223769
WeightClass:700
WidthClass:5
AngleClass:1
%EndFont

%BeginFont
Handler:DirectoryHandler
FontType:TrueType
FontName:CenturyGothic-Italic
FamilyName:Century Gothic
StyleName:Italic
FullName:Century Gothic Italic
MenuName:Century Gothic
StyleBits:1
WritingScript:Roman
OutlineFileName:C:\xampp\htdocs\politis\wp-content\themes\politis\Font\GOTHICI.TTF
DataFormat:sfntData
FileLength:148520
FileModTime:1377223769
WeightClass:400
WidthClass:5
AngleClass:1
%EndFont

%BeginFont
Handler:DirectoryHandler
FontType:Invalid
OutlineFileName:C:\xampp\htdocs\politis\wp-content\themes\politis\Font\journal-webfont.eot
FileModTime:1386186306
%EndFont

%BeginFont
Handler:DirectoryHandler
FontType:Invalid
OutlineFileName:C:\xampp\htdocs\politis\wp-content\themes\politis\Font\journal-webfont.svg
FileModTime:1386186306
%EndFont

%BeginFont
Handler:DirectoryHandler
FontType:TrueType
FontName:Journal
FamilyName:Journal
StyleName:Regular
FullName:Journal Regular
MenuName:Journal
StyleBits:0
WritingScript:Roman
OutlineFileName:C:\xampp\htdocs\politis\wp-content\themes\politis\Font\journal-webfont.ttf
DataFormat:sfntData
FileLength:97792
FileModTime:1386186306
WeightClass:400
WidthClass:5
AngleClass:0
%EndFont

%BeginFont
Handler:DirectoryHandler
FontType:Invalid
OutlineFileName:C:\xampp\htdocs\politis\wp-content\themes\politis\Font\journal-webfont.woff
FileModTime:1386186306
%EndFont

%BeginFont
Handler:DirectoryHandler
FontType:Invalid
OutlineFileName:C:\xampp\htdocs\politis\wp-content\themes\politis\Font\LICENSE.txt
FileModTime:1377223763
%EndFont

%BeginFont
Handler:DirectoryHandler
FontType:Invalid
OutlineFileName:C:\xampp\htdocs\politis\wp-content\themes\politis\Font\stylesheet.css
FileModTime:1385513780
%EndFont

%BeginFont
Handler:DirectoryHandler
FontType:Invalid
OutlineFileName:C:\xampp\htdocs\politis\wp-content\themes\politis\Font\ubuntu-b-webfont.eot
FileModTime:1385513780
%EndFont

%BeginFont
Handler:DirectoryHandler
FontType:Invalid
OutlineFileName:C:\xampp\htdocs\politis\wp-content\themes\politis\Font\ubuntu-b-webfont.svg
FileModTime:1385513780
%EndFont

%BeginFont
Handler:DirectoryHandler
FontType:TrueType
FontName:Ubuntu-Bold
FamilyName:Ubuntu
StyleName:Bold
FullName:Ubuntu Bold
MenuName:Ubuntu
StyleBits:2
WritingScript:Roman
OutlineFileName:C:\xampp\htdocs\politis\wp-content\themes\politis\Font\ubuntu-b-webfont.ttf
DataFormat:sfntData
FileLength:113416
FileModTime:1385513780
WeightClass:700
WidthClass:5
AngleClass:0
%EndFont

%BeginFont
Handler:DirectoryHandler
FontType:Invalid
OutlineFileName:C:\xampp\htdocs\politis\wp-content\themes\politis\Font\ubuntu-b-webfont.woff
FileModTime:1385513780
%EndFont

%BeginFont
Handler:DirectoryHandler
FontType:Invalid
OutlineFileName:C:\xampp\htdocs\politis\wp-content\themes\politis\Font\ubuntu-l-webfont.eot
FileModTime:1385513780
%EndFont

%BeginFont
Handler:DirectoryHandler
FontType:Invalid
OutlineFileName:C:\xampp\htdocs\politis\wp-content\themes\politis\Font\ubuntu-l-webfont.svg
FileModTime:1385513780
%EndFont

%BeginFont
Handler:DirectoryHandler
FontType:TrueType
FontName:Ubuntu-Light
FamilyName:Ubuntu
StyleName:Light
FullName:Ubuntu Light Regular
MenuName:Ubuntu Light
StyleBits:0
WritingScript:Roman
OutlineFileName:C:\xampp\htdocs\politis\wp-content\themes\politis\Font\ubuntu-l-webfont.ttf
DataFormat:sfntData
FileLength:103448
FileModTime:1385513780
WeightClass:300
WidthClass:5
AngleClass:0
%EndFont

%BeginFont
Handler:DirectoryHandler
FontType:Invalid
OutlineFileName:C:\xampp\htdocs\politis\wp-content\themes\politis\Font\ubuntu-l-webfont.woff
FileModTime:1385513780
%EndFont

%BeginFont
Handler:DirectoryHandler
FontType:Invalid
OutlineFileName:C:\xampp\htdocs\politis\wp-content\themes\politis\Font\ubuntu-r-webfont.eot
FileModTime:1385513430
%EndFont

%BeginFont
Handler:DirectoryHandler
FontType:Invalid
OutlineFileName:C:\xampp\htdocs\politis\wp-content\themes\politis\Font\ubuntu-r-webfont.svg
FileModTime:1385513430
%EndFont

%BeginFont
Handler:DirectoryHandler
FontType:TrueType
FontName:Ubuntu
FamilyName:Ubuntu
StyleName:Regular
FullName:Ubuntu Regular
MenuName:Ubuntu
StyleBits:0
WritingScript:Roman
OutlineFileName:C:\xampp\htdocs\politis\wp-content\themes\politis\Font\ubuntu-r-webfont.ttf
DataFormat:sfntData
FileLength:113636
FileModTime:1385513430
WeightClass:400
WidthClass:5
AngleClass:0
%EndFont

%BeginFont
Handler:DirectoryHandler
FontType:Invalid
OutlineFileName:C:\xampp\htdocs\politis\wp-content\themes\politis\Font\ubuntu-r-webfont.woff
FileModTime:1385513430
%EndFont

%BeginFont
Handler:DirectoryHandler
FontType:Invalid
OutlineFileName:C:\xampp\htdocs\politis\wp-content\themes\politis\Font\vani-webfont.eot
FileModTime:1385513780
%EndFont

%BeginFont
Handler:DirectoryHandler
FontType:Invalid
OutlineFileName:C:\xampp\htdocs\politis\wp-content\themes\politis\Font\vani-webfont.svg
FileModTime:1385513780
%EndFont

%BeginFont
Handler:DirectoryHandler
FontType:TrueType
FontName:Vani
FamilyName:Vani
StyleName:Regular
FullName:Vani Regular
MenuName:Vani
StyleBits:0
WritingScript:Roman
OutlineFileName:C:\xampp\htdocs\politis\wp-content\themes\politis\Font\vani-webfont.ttf
DataFormat:sfntData
FileLength:60212
FileModTime:1385513780
WeightClass:400
WidthClass:5
AngleClass:0
%EndFont

%BeginFont
Handler:DirectoryHandler
FontType:Invalid
OutlineFileName:C:\xampp\htdocs\politis\wp-content\themes\politis\Font\vani-webfont.woff
FileModTime:1385513780
%EndFont

